date	Australia	Austria	Belgium	Bangladesh	Brazil	Canada	Chile	China	Denmark	Dominican Republic	Algeria	East Asia Pacific	Europe Central Asia	Ecuador	Euro area	Spain	European Union	Finland	France	United Kingdom	Greece	Guatemala	Hong Kong SAR  China	Heavily indebted poor countries HIPC	India	Ireland	Iceland	Israel	Italy	Jamaica	Japan	Korea Rep	Sri Lanka	Luxembourg	Morocco	Mexico	Malaysia	North America	Nigeria	Netherlands	Norway	Nepal	Pakistan	Panama	Peru	Philippines	Portugal	South Asia	Senegal	Singapore	Sweden	Thailand	United States	South Africa
1990	311.43	166.46	206.43	31.6	461.95	593.93	33.11	360.86	138.25	7.07	62.05	4747	8839.4	15.24	5872.1	535.1	7579.12	141.52	1275.3	1093.17	97.89	7.65	76.93	128.53	316.7	49.36	6.52	58.99	1177.33	4.59	3139.97	279.35	8.03	13.23	30.18	262.71	44.02	6575.11	30.76	314.27	119.79	3.63	40.01	6.43	26.41	44.31	78.72	402.05	5.72	36.15	258.15	85.34	5979.59	115.55
1991	326.07	173.79	211.64	30.96	602.86	610.33	37.83	383.37	139.22	9.72	45.72	5345.05	9119.85	16.99	6104.96	575.6	7865.71	127.87	1275.56	1142.8	105.14	9.41	88.96	132.45	266.5	49.85	6.97	67.53	1242.11	4.07	3578.14	325.73	9	14.32	32.29	314.45	49.14	6786.01	27.39	323.32	121.87	3.92	45.45	7.07	34.67	45.42	89.24	357.72	5.62	45.47	270.36	98.23	6174.04	123.94
1992	325.69	195.08	236.04	31.71	400.6	592.39	45.96	426.92	152.92	11.28	48	5835.76	9781.8	18.09	6735.38	629.2	8571.12	112.63	1408.72	1179.66	116.22	10.44	104.27	120.79	284.36	55.99	7.14	75.58	1315.81	3.53	3897.83	350.05	9.7	16.07	33.71	363.61	59.17	7133.37	29.3	358.33	130.84	3.4	48.64	8.04	36.14	52.98	107.6	379.83	6	52.16	280.31	111.45	6539.3	134.55
1993	312.37	190.38	225.92	33.17	437.8	577.17	49.3	444.73	143.2	12.98	49.95	6552.48	8989.61	18.94	6169.13	523.65	7815.48	89.26	1330.09	1061.39	108.81	11.4	120.35	125.77	275.57	52.48	6.27	75.95	1061.45	4.86	4466.57	386.3	10.34	16.49	31.66	503.96	66.89	7457.71	15.79	349.04	120.58	3.66	51.48	8.78	35.16	54.37	95.02	376.24	5.68	60.64	209.95	128.89	6878.72	134.31
1994	323.22	203.54	246.19	33.77	558.11	578.14	57.01	564.32	156.16	14.51	42.54	7313.62	9402.28	22.71	6516.01	529.12	8299.16	103.32	1401.64	1140.49	116.6	12.98	135.81	111.45	322.91	57.17	6.44	86.31	1095.59	4.91	4907.04	455.6	11.72	18.33	35.6	527.32	74.48	7888.76	18.09	374.29	127.13	4.07	51.89	9.37	44.88	64.08	99.7	426.65	3.88	73.78	226.08	146.68	7308.76	139.75
1995	368.39	241.04	289.57	37.94	785.64	604.03	73.45	734.55	185.01	16.36	41.76	8310.31	10845.18	24.43	7520.7	612.94	9626.42	134.2	1609.89	1335.22	136.88	14.66	144.65	126.62	355.48	69.22	7.18	100.34	1170.79	5.78	5449.12	556.13	13.03	21.59	39.03	343.79	88.7	8270.12	28.55	446.53	152.03	4.4	60.64	9.57	53.31	74.12	118.13	474.03	4.88	87.89	264.05	169.28	7664.06	155.46
1996	401.82	237.25	281.36	46.44	850.43	628.55	78.04	863.75	187.63	18.13	46.94	8008.59	11072.73	25.23	7612.27	641	9841.35	132.1	1614.25	1408.78	145.86	15.67	159.72	132.41	387.66	75.88	7.5	109.96	1308.93	6.5	4833.71	598.1	13.9	21.78	43.16	397.4	100.85	8731.44	34.99	445.7	163.52	4.52	63.32	9.87	55.25	82.85	122.63	518.62	5.07	96.4	288.1	183.04	8100.2	147.61
1997	436.1	212.79	254.81	48.24	883.2	652.83	84.95	961.6	173.54	19.59	48.18	7662.99	10506.31	28.16	6959.96	588.69	9289.52	126.83	1460.71	1552.48	143.16	17.79	177.35	139.38	410.32	82.83	7.6	114.72	1239.05	7.45	4414.73	557.5	15.09	19.73	39.15	480.55	100.01	9264.27	35.82	412.2	161.35	4.92	62.43	10.68	58.15	82.34	117.05	544.01	4.67	100.16	264.48	150.18	8608.52	152.59
1998	399.78	218.26	260.6	49.98	863.72	631.81	81.58	1029.04	176.99	21.17	48.19	6863.96	10765.94	27.98	7151.57	617.04	9605.57	133.94	1510.76	1638.51	144.43	19.4	168.89	143.36	415.73	90.08	8.47	115.98	1266.31	8.72	4032.51	374.24	15.79	20.21	41.81	502.01	72.17	9724.11	32	432.48	154.17	4.86	62.19	11.58	55.5	72.21	123.98	551.63	5.03	85.71	266.8	113.68	9089.17	137.77
1999	389.15	217.19	260.2	51.27	599.39	676.08	75.17	1094	177.97	21.71	48.64	7665.32	10643.15	19.65	7119.59	633.19	9590.85	135.23	1500.28	1665.62	142.54	18.32	165.77	143.35	452.7	98.69	8.93	117.19	1248.56	8.8	4562.08	485.25	15.66	22.24	41.63	579.46	79.15	10340.03	35.87	441.98	162.29	5.03	62.97	12.13	50.19	83	127.47	590.95	5.14	86.28	270.85	126.67	9660.62	136.63
2000	415.45	196.8	237.9	53.37	655.42	742.29	77.86	1211.35	164.16	24	54.79	8291.88	10025.33	18.33	6487.33	595.4	8912.44	125.54	1368.44	1647.95	130.13	19.29	171.67	155.83	462.15	99.85	8.95	132.34	1141.76	8.93	4887.52	561.63	16.33	21.26	38.86	683.65	93.79	11030.55	46.39	412.81	171.32	5.49	73.95	12.3	51.74	81.03	118.36	614.76	4.68	95.83	259.8	126.39	10284.78	136.36
2001	378.9	197.34	237.84	53.99	559.37	736.38	70.98	1339.4	164.79	24.89	54.74	7712.93	10122.52	24.47	6593.63	625.98	9009.86	129.25	1382.22	1621.51	136.19	18.7	169.4	147.88	478.97	109.13	8.15	130.71	1162.32	9.09	4303.54	533.05	15.75	21.27	39.46	724.7	92.78	11361.88	44.14	426.57	174	6.01	72.31	12.5	52.03	76.26	121.55	630.83	4.88	89.29	239.92	120.3	10621.82	121.6
2002	394.64	213.38	258.86	54.72	507.96	757.95	69.74	1470.55	178.64	26.57	56.76	7837.07	11073.97	28.55	7174.01	705.15	9822.71	139.55	1500.34	1768.41	153.83	20.78	166.35	160.57	508.07	127.95	9.2	121.07	1266.51	9.69	4115.12	609.02	16.54	23.62	42.24	741.56	100.85	11739.4	59.12	465.37	195.42	6.05	72.31	12.99	54.78	81.36	134.23	663.25	5.33	91.94	263.93	134.3	10977.51	115.75
2003	466.85	261.7	319	60.16	558.32	892.38	75.64	1660.29	218.1	21.28	67.86	8617.38	13488.99	32.43	8851.57	906.85	11957.24	171.07	1848.12	2038.4	201.92	21.92	161.38	182.59	599.59	164.29	11.3	126.86	1569.65	9.4	4445.66	680.52	18.88	29.56	52.06	713.28	110.2	12407.24	67.66	571.86	228.75	6.33	83.24	13.69	58.73	83.91	164.96	774.47	6.86	97	331.11	152.28	11510.67	175.26
2004	613.33	300.9	370.89	65.11	669.32	1023.2	99.21	1955.35	251.37	22.04	85.32	9663.71	15722.62	36.59	10152.86	1069.56	13806.71	196.77	2124.11	2398.56	240.52	23.97	169.1	210.45	699.69	193.87	13.7	135.45	1798.31	10.15	4815.15	764.88	20.66	34.69	59.63	770.27	124.75	13302.61	87.85	650.53	264.36	7.27	97.98	15.01	66.77	91.37	189.19	897.93	8.03	114.19	381.71	172.9	12274.93	228.94
2005	693.76	315.97	387.37	69.44	891.63	1169.36	122.96	2285.97	264.47	34	103.2	10311.34	16747.77	41.51	10536.62	1157.28	14441.22	204.44	2203.68	2520.7	247.78	27.21	181.57	242.83	808.9	211.65	16.69	142.46	1852.66	11.2	4755.41	898.14	24.41	37.35	62.34	866.35	143.53	14267.95	112.25	678.53	308.72	8.13	109.5	16.37	76.06	103.07	197.3	1028.64	8.71	127.42	389.04	189.32	13093.73	257.67
2006	747.57	336	409.81	71.82	1107.64	1315.42	154.79	2752.13	282.88	35.95	117.03	10939.73	18128.08	46.8	11186.01	1264.55	15405.42	216.55	2325.01	2692.61	273.32	30.23	193.54	291.65	920.32	232.09	17.04	153.97	1942.63	11.91	4530.38	1011.8	28.28	42.41	68.64	965.28	162.69	15176.72	145.43	726.65	345.42	9.04	137.26	18.14	88.64	122.21	208.57	1176.25	9.36	147.8	420.03	221.76	13855.89	271.81
2007	853.76	388.69	471.82	79.61	1397.08	1464.98	173.61	3552.18	319.42	44.17	134.98	12237	21178.8	51.01	12879.5	1479.34	17795.83	255.38	2663.11	3074.36	318.5	34.11	211.6	348.04	1201.11	269.92	21.3	178.71	2203.05	12.82	4515.26	1122.68	32.35	50.89	79.04	1043.47	193.55	15948.51	166.45	839.42	401.08	10.33	152.39	20.96	102.17	149.36	240.17	1488.69	11.28	179.98	487.82	262.94	14477.64	299.03
2008	1055.33	430.29	518.63	91.63	1695.82	1549.13	179.64	4598.21	353.36	48.29	171	14134.06	23242.04	61.76	14118.18	1635.02	19136.67	283.74	2923.47	2890.56	354.46	39.14	219.28	419.81	1186.95	275.02	17.64	215.84	2390.73	13.68	5037.91	1002.22	40.71	55.85	92.51	1101.28	230.81	16273.82	208.06	936.23	462.55	12.55	170.08	24.52	120.55	174.2	262.01	1515.64	13.44	192.23	513.97	291.38	14718.58	287.1
2009	927.17	400.17	484.55	102.48	1667.02	1371.15	172.39	5109.95	321.24	48.38	137.21	14564.52	20443.2	62.52	12908.6	1499.1	17101.46	251.5	2693.83	2382.83	330	37.73	214.05	424.03	1323.94	236.31	12.89	207.42	2185.16	12.04	5231.38	901.93	42.07	51.37	92.9	894.95	202.26	15795.7	169.48	857.93	386.62	12.85	168.15	26.59	120.82	168.33	243.75	1665.59	12.81	192.41	429.66	281.71	14418.74	297.22
2010	1142.88	391.89	483.55	115.28	2208.87	1613.46	218.54	6100.62	322	53.95	161.21	16938.76	20924.69	69.56	12645.25	1431.62	16992.73	247.8	2646.84	2441.17	299.36	41.34	228.64	468.34	1656.62	221.95	13.25	233.61	2125.06	13.19	5700.1	1094.5	56.73	53.21	93.22	1051.13	255.02	16583.58	369.06	836.39	429.13	16	177.41	28.92	147.53	199.59	238.3	2042.14	12.95	236.42	488.38	341.11	14964.37	375.3
2011	1390.56	431.12	527.01	128.64	2616.2	1788.65	252.25	7572.55	344	57.75	200.02	19639.16	23182.63	79.28	13623.29	1488.07	18352.58	273.67	2862.68	2619.7	287.8	47.65	248.51	522.76	1823.05	239.02	14.67	261.63	2276.29	14.44	6157.46	1202.46	65.29	60	101.37	1171.19	297.95	17312.12	411.74	893.76	498.83	18.91	213.59	34.37	171.76	224.14	244.9	2272.01	14.39	275.6	563.11	370.82	15517.93	416.88
2012	1538.19	409.43	497.88	133.36	2465.19	1824.29	267.12	8560.55	327.15	60.61	209.06	21019.13	22340.7	87.92	12639.52	1336.02	17290.2	256.71	2681.42	2662.09	245.67	50.39	262.63	562.95	1827.64	225.57	14.22	257.3	2072.82	14.8	6203.21	1222.81	68.43	56.68	98.27	1186.6	314.44	17985.08	460.95	828.95	510.23	18.85	224.38	39.95	192.65	250.09	216.37	2297.91	14.23	289.16	543.88	397.56	16155.26	396.33
2013	1567.18	430.07	520.93	149.99	2472.81	1842.63	278.38	9607.22	343.58	61.97	209.76	21262.54	23349.16	95.13	13190.84	1361.85	18026.88	269.98	2808.51	2739.82	239.86	53.85	275.7	610.69	1856.72	239.39	15.48	292.49	2130.49	14.27	5155.72	1305.6	74.32	61.74	106.83	1261.98	323.28	18539.72	514.97	866.68	523.5	19.27	231.22	44.86	201.22	271.84	226.07	2356.88	14.85	302.51	578.74	420.53	16691.52	366.81
2014	1459.6	441.89	531.08	172.89	2455.99	1792.88	260.99	10482.37	352.99	65.23	213.81	21900.03	23654.7	101.73	13476.47	1376.91	18632.42	272.61	2849.31	3022.83	237.03	58.72	291.46	648.74	2035.39	258.1	17.18	308.42	2151.73	13.9	4848.73	1411.33	79.36	66.33	110.08	1298.46	338.06	19191.76	568.5	879.64	499.34	20	244.36	49.17	201.05	284.58	229.63	2578.26	15.3	308.14	573.82	406.52	17393.1	351.12
2015	1345.38	382.07	455.2	195.08	1803.65	1552.81	242.52	11064.67	301.3	68.1	165.87	21766.95	20364.62	99.29	11661.89	1197.79	16410.7	232.44	2433.56	2885.57	195.54	63.77	309.4	640	2089.87	290.62	16.78	299.1	1832.35	14.19	4383.08	1382.76	80.61	57.78	101.19	1152.26	296.43	19679.44	481.07	758	386.66	21.41	270.56	52.13	189.21	292.77	199.42	2682.8	13.64	296.84	497.92	399.23	18120.71	317.61
2016	1204.62	390.8	467.96	221.42	1796.19	1529.76	247.03	11199.15	306.9	71.58	159.05	22480.33	20273.84	98.61	11934.06	1237.26	16487.34	238.5	2465.45	2647.9	192.69	68.76	320.91	649.37	2263.79	304.82	20.05	317.74	1858.91	14.06	4940.16	1411.25	81.32	58.63	103.61	1046.92	296.54	20160.3	404.65	777.23	371.08	21.13	278.91	55.19	192.21	304.91	204.84	2892.48	14.68	296.98	514.46	407.03	18624.48	295.46
